{
    "openapi": "3.0.0",
    "info": {
        "title": "Jet test",
        "version": "1.0.0"
    },
    "paths": {
        "/api/game": {
            "get": {
                "tags": [
                    "Игры"
                ],
                "summary": "Получение игр",
                "operationId": "game.index",
                "responses": {
                    "500": {
                        "description": "Что-то пошло не так",
                        "content": {
                            "application/json": {
                                "schema": {
                                    "properties": {
                                        "error": {
                                            "type": "string",
                                            "example": "Что-то пошло не так"
                                        }
                                    },
                                    "type": "object"
                                }
                            }
                        }
                    },
                    "200": {
                        "description": "Success",
                        "content": {
                            "application/json": {
                                "schema": {
                                    "properties": {
                                        "data": {}
                                    },
                                    "type": "object"
                                }
                            }
                        }
                    }
                }
            },
            "post": {
                "tags": [
                    "Игры"
                ],
                "summary": "Создание игры",
                "description": "Создание игры",
                "operationId": "game.store",
                "requestBody": {
                    "description": "Данные игры",
                    "required": true,
                    "content": {
                        "application/json": {
                            "schema": {
                                "required": [
                                    "name",
                                    "description",
                                    "genres"
                                ],
                                "properties": {
                                    "name": {
                                        "type": "string",
                                        "example": "Название"
                                    },
                                    "description": {
                                        "type": "string",
                                        "example": "Описание"
                                    },
                                    "genres": {
                                        "type": "array",
                                        "items": {
                                            "type": "integer"
                                        }
                                    }
                                },
                                "type": "object"
                            }
                        }
                    }
                },
                "responses": {
                    "200": {
                        "description": "Успешно создали",
                        "content": {
                            "application/json": {
                                "schema": {
                                    "properties": {
                                        "data": {
                                            "$ref": "#/components/schemas/Game"
                                        }
                                    },
                                    "type": "object"
                                }
                            }
                        }
                    },
                    "500": {
                        "description": "Ошибка",
                        "content": {
                            "application/json": {
                                "schema": {
                                    "properties": {
                                        "error": {
                                            "type": "string",
                                            "example": "Что-то пошло не так, попробуйте позднее!"
                                        }
                                    },
                                    "type": "object"
                                }
                            }
                        }
                    }
                }
            }
        },
        "/api/game/{game_id}": {
            "post": {
                "tags": [
                    "Игры"
                ],
                "summary": "Редактирование игры",
                "description": "Редактирование игры",
                "operationId": "game.update",
                "parameters": [
                    {
                        "name": "game_id",
                        "in": "path",
                        "description": "Game Id",
                        "required": true,
                        "schema": {
                            "type": "integer",
                            "format": "int64"
                        },
                        "example": "1"
                    }
                ],
                "requestBody": {
                    "description": "Данные игры",
                    "required": true,
                    "content": {
                        "application/json": {
                            "schema": {
                                "required": [
                                    "name",
                                    "description",
                                    "genres"
                                ],
                                "properties": {
                                    "name": {
                                        "type": "string",
                                        "example": "Название"
                                    },
                                    "description": {
                                        "type": "string",
                                        "example": "Описание"
                                    },
                                    "genres": {
                                        "type": "array",
                                        "items": {
                                            "type": "integer"
                                        }
                                    }
                                },
                                "type": "object"
                            }
                        }
                    }
                },
                "responses": {
                    "200": {
                        "description": "Успешно обновили",
                        "content": {
                            "application/json": {
                                "schema": {
                                    "properties": {
                                        "data": {
                                            "$ref": "#/components/schemas/Game"
                                        }
                                    },
                                    "type": "object"
                                }
                            }
                        }
                    },
                    "422": {
                        "description": "Неправильный id",
                        "content": {
                            "application/json": {
                                "schema": {
                                    "properties": {
                                        "error": {
                                            "type": "string",
                                            "example": "Неправильный id"
                                        }
                                    },
                                    "type": "object"
                                }
                            }
                        }
                    },
                    "500": {
                        "description": "Ошибка",
                        "content": {
                            "application/json": {
                                "schema": {
                                    "properties": {
                                        "error": {
                                            "type": "string",
                                            "example": "Что-то пошло не так, попробуйте позднее!"
                                        }
                                    },
                                    "type": "object"
                                }
                            }
                        }
                    }
                }
            },
            "delete": {
                "tags": [
                    "Игры"
                ],
                "summary": "Удаление игры",
                "description": "Удаление игры",
                "operationId": "game.delete",
                "parameters": [
                    {
                        "name": "game_id",
                        "in": "path",
                        "description": "ID игры",
                        "required": true,
                        "schema": {
                            "type": "integer",
                            "format": "int64"
                        },
                        "example": "1"
                    }
                ],
                "responses": {
                    "200": {
                        "description": "Успешно удалили",
                        "content": {
                            "application/json": {
                                "schema": {
                                    "properties": {
                                        "success": {
                                            "type": "string",
                                            "example": "Успешно удалили"
                                        }
                                    },
                                    "type": "object"
                                }
                            }
                        }
                    },
                    "422": {
                        "description": "Неправильный айди",
                        "content": {
                            "application/json": {
                                "schema": {
                                    "properties": {
                                        "error": {
                                            "type": "string",
                                            "example": "Неправильный id"
                                        }
                                    },
                                    "type": "object"
                                }
                            }
                        }
                    },
                    "500": {
                        "description": "Ошибка",
                        "content": {
                            "application/json": {
                                "schema": {
                                    "properties": {
                                        "error": {
                                            "type": "string",
                                            "example": "Что-то пошло не так, попробуйте позднее!"
                                        }
                                    },
                                    "type": "object"
                                }
                            }
                        }
                    }
                }
            }
        },
        "/api/genre": {
            "get": {
                "tags": [
                    "Жанры"
                ],
                "summary": "Получение жанров",
                "operationId": "genre.index",
                "responses": {
                    "500": {
                        "description": "Что-то пошло не так",
                        "content": {
                            "application/json": {
                                "schema": {
                                    "properties": {
                                        "error": {
                                            "type": "string",
                                            "example": "Что-то пошло не так"
                                        }
                                    },
                                    "type": "object"
                                }
                            }
                        }
                    },
                    "200": {
                        "description": "Success",
                        "content": {
                            "application/json": {
                                "schema": {
                                    "properties": {
                                        "data": {}
                                    },
                                    "type": "object"
                                }
                            }
                        }
                    }
                }
            },
            "post": {
                "tags": [
                    "Жанры"
                ],
                "summary": "Создание жанра",
                "description": "Создание жанра",
                "operationId": "Genre.store",
                "requestBody": {
                    "description": "Данные жанра",
                    "required": true,
                    "content": {
                        "application/json": {
                            "schema": {
                                "required": [
                                    "name",
                                    "description"
                                ],
                                "properties": {
                                    "name": {
                                        "type": "string",
                                        "example": "Название"
                                    }
                                },
                                "type": "object"
                            }
                        }
                    }
                },
                "responses": {
                    "200": {
                        "description": "Успешно создали",
                        "content": {
                            "application/json": {
                                "schema": {
                                    "properties": {
                                        "data": {
                                            "$ref": "#/components/schemas/Genre"
                                        }
                                    },
                                    "type": "object"
                                }
                            }
                        }
                    },
                    "500": {
                        "description": "Ошибка",
                        "content": {
                            "application/json": {
                                "schema": {
                                    "properties": {
                                        "error": {
                                            "type": "string",
                                            "example": "Что-то пошло не так, попробуйте позднее!"
                                        }
                                    },
                                    "type": "object"
                                }
                            }
                        }
                    }
                }
            }
        },
        "/api/genre/{genre_id}": {
            "post": {
                "tags": [
                    "Жанры"
                ],
                "summary": "Редактирование жанра",
                "description": "Редактирование жанра",
                "operationId": "Genre.update",
                "parameters": [
                    {
                        "name": "genre_id",
                        "in": "path",
                        "description": "genre Id",
                        "required": true,
                        "schema": {
                            "type": "integer",
                            "format": "int64"
                        },
                        "example": "1"
                    }
                ],
                "requestBody": {
                    "description": "Данные жанра",
                    "required": true,
                    "content": {
                        "application/json": {
                            "schema": {
                                "required": [
                                    "name",
                                    "description"
                                ],
                                "properties": {
                                    "name": {
                                        "type": "string",
                                        "example": "Название"
                                    }
                                },
                                "type": "object"
                            }
                        }
                    }
                },
                "responses": {
                    "200": {
                        "description": "Успешно обновили",
                        "content": {
                            "application/json": {
                                "schema": {
                                    "properties": {
                                        "data": {
                                            "$ref": "#/components/schemas/Genre"
                                        }
                                    },
                                    "type": "object"
                                }
                            }
                        }
                    },
                    "422": {
                        "description": "Неправильный id",
                        "content": {
                            "application/json": {
                                "schema": {
                                    "properties": {
                                        "error": {
                                            "type": "string",
                                            "example": "Неправильный id"
                                        }
                                    },
                                    "type": "object"
                                }
                            }
                        }
                    },
                    "500": {
                        "description": "Ошибка",
                        "content": {
                            "application/json": {
                                "schema": {
                                    "properties": {
                                        "error": {
                                            "type": "string",
                                            "example": "Что-то пошло не так, попробуйте позднее!"
                                        }
                                    },
                                    "type": "object"
                                }
                            }
                        }
                    }
                }
            },
            "delete": {
                "tags": [
                    "Жанры"
                ],
                "summary": "Удаление жанра",
                "description": "Удаление жанра",
                "operationId": "Genre.delete",
                "parameters": [
                    {
                        "name": "genre_id",
                        "in": "path",
                        "description": "ID жанра",
                        "required": true,
                        "schema": {
                            "type": "integer",
                            "format": "int64"
                        },
                        "example": "1"
                    }
                ],
                "responses": {
                    "200": {
                        "description": "Успешно удалили",
                        "content": {
                            "application/json": {
                                "schema": {
                                    "properties": {
                                        "success": {
                                            "type": "string",
                                            "example": "Успешно удалили"
                                        }
                                    },
                                    "type": "object"
                                }
                            }
                        }
                    },
                    "422": {
                        "description": "Неправильный айди",
                        "content": {
                            "application/json": {
                                "schema": {
                                    "properties": {
                                        "error": {
                                            "type": "string",
                                            "example": "Неправильный id"
                                        }
                                    },
                                    "type": "object"
                                }
                            }
                        }
                    },
                    "500": {
                        "description": "Ошибка",
                        "content": {
                            "application/json": {
                                "schema": {
                                    "properties": {
                                        "error": {
                                            "type": "string",
                                            "example": "Что-то пошло не так, попробуйте позднее!"
                                        }
                                    },
                                    "type": "object"
                                }
                            }
                        }
                    }
                }
            }
        }
    },
    "components": {
        "schemas": {
            "Game": {
                "properties": {
                    "name": {
                        "type": "string"
                    },
                    "description": {
                        "type": "string"
                    }
                },
                "type": "object"
            },
            "Genre": {
                "properties": {
                    "name": {
                        "type": "string"
                    }
                },
                "type": "object"
            }
        }
    }
}